[gd_scene load_steps=5 format=3 uid="uid://bwptx0a5hp6mx"]

[ext_resource type="Script" path="res://Plank/Plank.gd" id="1_bbcln"]
[ext_resource type="Material" uid="uid://bdkqkof47wxaq" path="res://Level/assets/white.tres" id="1_dopkq"]

[sub_resource type="BoxMesh" id="BoxMesh_8ruv8"]
size = Vector3(3.5, 0.1, 5)

[sub_resource type="BoxShape3D" id="BoxShape3D_then3"]
size = Vector3(3.5, 0.1, 5)

[node name="Plank" type="StaticBody3D"]
script = ExtResource("1_bbcln")

[node name="MeshInstance3D" type="MeshInstance3D" parent="."]
transform = Transform3D(1, 0, 0, 0, 1, 0, 0, 0, 1, 0, 0, -2.5)
material_override = ExtResource("1_dopkq")
mesh = SubResource("BoxMesh_8ruv8")
skeleton = NodePath("../..")

[node name="CollisionShape3D" type="CollisionShape3D" parent="."]
transform = Transform3D(1, 0, 0, 0, 1, 0, 0, 0, 1, 0, 0, -2.5)
shape = SubResource("BoxShape3D_then3")
